Jul 17, 2017 3:40:32 AM com.google.inject.assistedinject.FactoryProvider2 isValidForOptimizedAssistedInject
WARNING: AssistedInject factory com.smartbear.servicev.view.SvpViewFactory will be slow because class com.smartbear.servicev.view.virt.http.HttpVirtSetupView has assisted Provider dependencies or injects the Injector. Stop injecting @Assisted Provider<T> (instead use @Assisted T) or Injector to speed things up. (It will be a ~6500% speed bump!)  The exact offending deps are: [Key[type=com.google.inject.Injector, annotation=[none]]@com.smartbear.servicev.view.virt.http.HttpVirtSetupView.<init>()[8]]
Jul 17, 2017 3:40:32 AM com.google.inject.assistedinject.FactoryProvider2 isValidForOptimizedAssistedInject
WARNING: AssistedInject factory com.smartbear.servicev.view.SvpViewFactory will be slow because class com.smartbear.servicev.view.virt.jms.JmsVirtSetupView has assisted Provider dependencies or injects the Injector. Stop injecting @Assisted Provider<T> (instead use @Assisted T) or Injector to speed things up. (It will be a ~6500% speed bump!)  The exact offending deps are: [Key[type=com.google.inject.Injector, annotation=[none]]@com.smartbear.servicev.view.virt.jms.JmsVirtSetupView.<init>()[4]]
java.lang.NumberFormatException: For input string: "23423dr"
	at sun.misc.FloatingDecimal.readJavaFormatString(Unknown Source)
	at sun.misc.FloatingDecimal.parseFloat(Unknown Source)
	at java.lang.Float.parseFloat(Unknown Source)
	at com.eviware.soapui.impl.wsdl.teststeps.datagen.NumberProperty.a(NumberProperty.java:152)
	at com.eviware.soapui.impl.wsdl.teststeps.datagen.NumberProperty.a(NumberProperty.java:144)
	at com.eviware.soapui.impl.wsdl.teststeps.datagen.NumberProperty.getValue(NumberProperty.java:91)
	at com.eviware.soapui.impl.wsdl.teststeps.datagen.AbstractDataGeneratorProperty.getValue(AbstractDataGeneratorProperty.java:143)
	at com.eviware.soapui.impl.wsdl.teststeps.datagen.WsdlDataGeneratorTestStep$PropertyProxy.getValue(WsdlDataGeneratorTestStep.java:305)
	at com.eviware.soapui.model.tree.nodes.PropertyTreeNode.buildName(PropertyTreeNode.java:51)
	at com.eviware.soapui.model.tree.nodes.PropertyTreeNode$PropertyModelItem.<init>(PropertyTreeNode.java:88)
	at com.eviware.soapui.model.tree.nodes.PropertyTreeNode.<init>(PropertyTreeNode.java:41)
	at com.eviware.soapui.model.tree.nodes.PropertiesTreeNode.<init>(PropertiesTreeNode.java:54)
	at com.eviware.soapui.model.tree.nodes.TestStepTreeNode.<init>(TestStepTreeNode.java:30)
	at com.eviware.soapui.model.tree.nodes.TestCaseTreeNode$TestStepsTreeNode.createTestStepTreeNode(TestCaseTreeNode.java:140)
	at com.eviware.soapui.model.tree.nodes.TestCaseTreeNode$TestStepsTreeNode.<init>(TestCaseTreeNode.java:133)
	at com.eviware.soapui.model.tree.nodes.TestCaseTreeNode.<init>(TestCaseTreeNode.java:51)
	at com.eviware.soapui.model.tree.nodes.TestSuiteTreeNode.<init>(TestSuiteTreeNode.java:51)
	at com.eviware.soapui.model.tree.nodes.ProjectTreeNode.init(ProjectTreeNode.java:83)
	at com.eviware.soapui.model.tree.nodes.ProjectTreeNode.<init>(ProjectTreeNode.java:54)
	at com.eviware.soapui.model.tree.nodes.ProjectTreeNodePro.<init>(ProjectTreeNodePro.java:10)
	at com.eviware.soapui.model.tree.nodes.ProjectTreeNodePro$ProjectTreeNodeProFactory.createProjectTreeNode(ProjectTreeNodePro.java:32)
	at com.eviware.soapui.model.tree.nodes.WorkspaceTreeNode.<init>(WorkspaceTreeNode.java:59)
	at com.eviware.soapui.ui.FilteredModelItemTreeModel.<init>(FilteredModelItemTreeModel.java:53)
	at com.eviware.soapui.ui.NavigatorTree.<init>(NavigatorTree.java:43)
	at com.eviware.soapui.ui.Navigator.buildUI(Navigator.java:198)
	at com.eviware.soapui.ui.Navigator.<init>(Navigator.java:131)
	at com.eviware.soapui.ready.ClassicModulePanel.<init>(ClassicModulePanel.java:143)
	at com.eviware.soapui.ready.ClassicModulePanel.<init>(ClassicModulePanel.java:129)
	at com.eviware.soapui.ready.ClassicModulePanel$Builder.build(ClassicModulePanel.java:641)
	at com.eviware.soapui.ready.ClassicModuleGui.buildUI(ClassicModuleGui.java:265)
	at com.eviware.soapui.ready.ClassicModuleGui.buildUI(ClassicModuleGui.java:1)
	at com.smartbear.ready.functional.view.FunctionalModuleGui$$EnhancerByGuice$$144c2142.buildUI(<generated>)
	at com.smartbear.ready.core.module.support.SimpleModuleGui.getComponent(SimpleModuleGui.java:53)
	at com.eviware.soapui.ready.ClassicModuleGui.getComponent(ClassicModuleGui.java:239)
	at com.eviware.soapui.ready.ClassicModuleGui.activate(ClassicModuleGui.java:207)
	at com.smartbear.ready.core.module.support.PrivateReadyApiModule.activate(PrivateReadyApiModule.java:89)
	at com.smartbear.ready.core.module.SimpleReadyApiDisplayDispatcher.a(SimpleReadyApiDisplayDispatcher.java:51)
	at com.smartbear.ready.core.module.SimpleReadyApiDisplayDispatcher.setActiveModule(SimpleReadyApiDisplayDispatcher.java:77)
	at sun.reflect.NativeMethodAccessorImpl.invoke0(Native Method)
	at sun.reflect.NativeMethodAccessorImpl.invoke(Unknown Source)
	at sun.reflect.DelegatingMethodAccessorImpl.invoke(Unknown Source)
	at java.lang.reflect.Method.invoke(Unknown Source)
	at org.codehaus.groovy.reflection.CachedMethod.invoke(CachedMethod.java:93)
	at groovy.lang.MetaMethod.doMethodInvoke(MetaMethod.java:325)
	at groovy.lang.MetaClassImpl.setProperty(MetaClassImpl.java:2702)
	at groovy.lang.MetaClassImpl.setProperty(MetaClassImpl.java:3749)
	at org.codehaus.groovy.runtime.InvokerHelper.setProperty(InvokerHelper.java:199)
	at org.codehaus.groovy.runtime.ScriptBytecodeAdapter.setProperty(ScriptBytecodeAdapter.java:484)
	at com.smartbear.ready.ui.swing.ReadyApiUiBuilder.activateModule(ReadyApiUiBuilder.groovy:571)
	at com.smartbear.ready.ui.swing.ReadyApiUiBuilder.this$2$activateModule(ReadyApiUiBuilder.groovy)
	at sun.reflect.NativeMethodAccessorImpl.invoke0(Native Method)
	at sun.reflect.NativeMethodAccessorImpl.invoke(Unknown Source)
	at sun.reflect.DelegatingMethodAccessorImpl.invoke(Unknown Source)
	at java.lang.reflect.Method.invoke(Unknown Source)
	at org.codehaus.groovy.reflection.CachedMethod.invoke(CachedMethod.java:93)
	at groovy.lang.MetaMethod.doMethodInvoke(MetaMethod.java:325)
	at groovy.lang.MetaClassImpl.invokeMethod(MetaClassImpl.java:1210)
	at org.codehaus.groovy.runtime.ScriptBytecodeAdapter.invokeMethodOnCurrentN(ScriptBytecodeAdapter.java:82)
	at com.smartbear.ready.ui.swing.ReadyApiUiBuilder.this$dist$invoke$1(ReadyApiUiBuilder.groovy)
	at com.smartbear.ready.ui.swing.ReadyApiUiBuilder$ModuleLink.methodMissing(ReadyApiUiBuilder.groovy)
	at sun.reflect.GeneratedMethodAccessor257.invoke(Unknown Source)
	at sun.reflect.DelegatingMethodAccessorImpl.invoke(Unknown Source)
	at java.lang.reflect.Method.invoke(Unknown Source)
	at org.codehaus.groovy.reflection.CachedMethod.invoke(CachedMethod.java:93)
	at groovy.lang.MetaClassImpl.invokeMissingMethod(MetaClassImpl.java:936)
	at groovy.lang.MetaClassImpl.invokePropertyOrMissing(MetaClassImpl.java:1259)
	at groovy.lang.MetaClassImpl.invokeMethod(MetaClassImpl.java:1212)
	at groovy.lang.MetaClassImpl.invokeMethod(MetaClassImpl.java:1019)
	at groovy.lang.MetaClassImpl.invokeMethod(MetaClassImpl.java:810)
	at com.smartbear.ready.ui.swing.ReadyApiUiBuilder$ModuleLink.invokeMethod(ReadyApiUiBuilder.groovy)
	at org.codehaus.groovy.runtime.metaclass.ClosureMetaClass.invokeOnDelegationObjects(ClosureMetaClass.java:430)
	at org.codehaus.groovy.runtime.metaclass.ClosureMetaClass.invokeMethod(ClosureMetaClass.java:369)
	at groovy.lang.MetaClassImpl.invokeMethod(MetaClassImpl.java:1019)
	at org.codehaus.groovy.runtime.callsite.PogoMetaClassSite.callCurrent(PogoMetaClassSite.java:69)
	at org.codehaus.groovy.runtime.callsite.CallSiteArray.defaultCallCurrent(CallSiteArray.java:52)
	at org.codehaus.groovy.runtime.callsite.AbstractCallSite.callCurrent(AbstractCallSite.java:154)
	at org.codehaus.groovy.runtime.callsite.AbstractCallSite.callCurrent(AbstractCallSite.java:166)
	at com.smartbear.ready.ui.swing.ReadyApiUiBuilder$_ModuleLink_closure5.doCall(ReadyApiUiBuilder.groovy:700)
	at sun.reflect.NativeMethodAccessorImpl.invoke0(Native Method)
	at sun.reflect.NativeMethodAccessorImpl.invoke(Unknown Source)
	at sun.reflect.DelegatingMethodAccessorImpl.invoke(Unknown Source)
	at java.lang.reflect.Method.invoke(Unknown Source)
	at org.codehaus.groovy.reflection.CachedMethod.invoke(CachedMethod.java:93)
	at groovy.lang.MetaMethod.doMethodInvoke(MetaMethod.java:325)
	at org.codehaus.groovy.runtime.metaclass.ClosureMetaClass.invokeMethod(ClosureMetaClass.java:294)
	at groovy.lang.MetaClassImpl.invokeMethod(MetaClassImpl.java:1019)
	at groovy.lang.Closure.call(Closure.java:426)
	at org.codehaus.groovy.runtime.ConvertedClosure.invokeCustom(ConvertedClosure.java:53)
	at org.codehaus.groovy.runtime.ConversionHandler.invoke(ConversionHandler.java:105)
	at com.sun.proxy.$Proxy81.mouseReleased(Unknown Source)
	at java.awt.AWTEventMulticaster.mouseReleased(Unknown Source)
	at java.awt.Component.processMouseEvent(Unknown Source)
	at javax.swing.JComponent.processMouseEvent(Unknown Source)
	at java.awt.Component.processEvent(Unknown Source)
	at java.awt.Container.processEvent(Unknown Source)
	at java.awt.Component.dispatchEventImpl(Unknown Source)
	at java.awt.Container.dispatchEventImpl(Unknown Source)
	at java.awt.Component.dispatchEvent(Unknown Source)
	at java.awt.LightweightDispatcher.retargetMouseEvent(Unknown Source)
	at java.awt.LightweightDispatcher.processMouseEvent(Unknown Source)
	at java.awt.LightweightDispatcher.dispatchEvent(Unknown Source)
	at java.awt.Container.dispatchEventImpl(Unknown Source)
	at java.awt.Window.dispatchEventImpl(Unknown Source)
	at java.awt.Component.dispatchEvent(Unknown Source)
	at java.awt.EventQueue.dispatchEventImpl(Unknown Source)
	at java.awt.EventQueue.access$500(Unknown Source)
	at java.awt.EventQueue$3.run(Unknown Source)
	at java.awt.EventQueue$3.run(Unknown Source)
	at java.security.AccessController.doPrivileged(Native Method)
	at java.security.ProtectionDomain$JavaSecurityAccessImpl.doIntersectionPrivilege(Unknown Source)
	at java.security.ProtectionDomain$JavaSecurityAccessImpl.doIntersectionPrivilege(Unknown Source)
	at java.awt.EventQueue$4.run(Unknown Source)
	at java.awt.EventQueue$4.run(Unknown Source)
	at java.security.AccessController.doPrivileged(Native Method)
	at java.security.ProtectionDomain$JavaSecurityAccessImpl.doIntersectionPrivilege(Unknown Source)
	at java.awt.EventQueue.dispatchEvent(Unknown Source)
	at java.awt.EventDispatchThread.pumpOneEventForFilters(Unknown Source)
	at java.awt.EventDispatchThread.pumpEventsForFilter(Unknown Source)
	at java.awt.EventDispatchThread.pumpEventsForHierarchy(Unknown Source)
	at java.awt.EventDispatchThread.pumpEvents(Unknown Source)
	at java.awt.EventDispatchThread.pumpEvents(Unknown Source)
	at java.awt.EventDispatchThread.run(Unknown Source)
